…
``` r
library(tidyverse)
data %>% 
    group_by(province) %>% 
    count()
```

    ## # A tibble: 26 x 2
    ## # Groups:   province [26]
    ##    province           n
    ##    <chr>          <int>
    ##  1 安徽省             1
    ##  2 北京市             3
    ##  3 福建省            13
    ##  4 甘肃省             1
    ##  5 广西壮族自治区     6
    ##  6 贵州省             2
    ##  7 海南省             6
    ##  8 河北省             1
    ##  9 河南省            35
    ## 10 黑龙江省          23
    ## # ... with 16 more rows
…
``` r
data03 %>% 
    group_by(phone_no) %>% 
    count()
```

    ## # A tibble: 36 x 2
    ## # Groups:   phone_no [36]
    ##    phone_no     n
    ##       <int> <int>
    ##  1      130     4
    ##  2      131     3
    ##  3      132     2
    ##  4      133     2
    ##  5      134     6
    ##  6      135     7
    ##  7      136    18
    ##  8      137    12
    ##  9      138     9
    ## 10      139    11
    ## # ... with 26 more rows
…
