…
``` r
data_addpred %>% 
    as_tibble()
```

    ## # A tibble: 1,096 x 3
    ##    y      yhat yhat_bin
    ##    <lgl> <dbl> <lgl>   
    ##  1 FALSE 0.103 FALSE   
    ##  2 FALSE 0.103 FALSE   
    ##  3 FALSE 0.103 FALSE   
    ##  4 FALSE 0.280 FALSE   
    ##  5 FALSE 0.103 FALSE   
    ##  6 FALSE 0.103 FALSE   
    ##  7 FALSE 0.103 FALSE   
    ##  8 FALSE 0.280 FALSE   
    ##  9 FALSE 0.103 FALSE   
    ## 10 TRUE  0.103 FALSE   
    ## # ... with 1,086 more rows
…
