…
    ##   id d_A  d_B p_1  p_2
    ## 1  a   A    B   1    2
    ## 2  b   A <NA>   1 <NA>

``` r
# LETTERS 需要数字化，用如下表格替换即可
tibble(
    upper = LETTERS
) %>% 
    mutate(num = row_number())
```

    ## # A tibble: 26 x 2
    ##    upper   num
    ##    <chr> <int>
    ##  1 A         1
    ##  2 B         2
    ##  3 C         3
    ##  4 D         4
    ##  5 E         5
    ##  6 F         6
    ##  7 G         7
    ##  8 H         8
    ##  9 I         9
    ## 10 J        10
    ## # ... with 16 more rows
