tmp.utf8.md
…
miss_case_summary(data)

## # A tibble: 683 x 3
##     case n_miss pct_miss
##    <int>  <int>    <dbl>
##  1   106      5     9.43
##  2   154      4     7.55
##  3    10      3     5.66
##  4    15      3     5.66
##  5    26      3     5.66
##  6    74      3     5.66
##  7   129      3     5.66
##  8   213      3     5.66
##  9   231      3     5.66
## 10   372      3     5.66
## # ... with 673 more rows
…
miss_var_summary(data)

## # A tibble: 53 x 3
##    variable      n_miss pct_miss
##    <chr>          <int>    <dbl>
##  1 rs2349573_G       21     3.07
##  2 rs143104263_A     21     3.07
##  3 rs201145_G        20     2.93
##  4 rs804553_C        20     2.93
##  5 rs370245477_C     18     2.64
##  6 rs201569_T        18     2.64
##  7 rs141184610_A     17     2.49
##  8 rs2989441_C       16     2.34
##  9 rs1561278_G       14     2.05
## 10 rs73212857_C      13     1.90
## # ... with 43 more rows
…
